{
    "products": [
        {
            "id": 1,
            "price": 90,
            "name": "Vanilla Ice-cream Scoop",
            "googleDriveUrl": "https://drive.google.com/file/d/1RWtrnfPcGb2fKpg9XYfQjLtqJv1nEnX-/view?usp=sharing"
        },
        {
            "id": 2,
            "price": 122,
            "name": "ButterScotch Ice-bar",
            "googleDriveUrl": "https://drive.google.com/file/d/1JY4OpHP-qT7YTJlXgK7S1Fe3K5ML1bV4/view?usp=sharing"
        },
        {
            "id": 3,
            "price": 80,
            "name": "Chocolate Ice-cream",
            "googleDriveUrl": "https://drive.google.com/file/d/1H7V0ZsDvGEw8tSJIV_bZ63K2jqXXa15T/view?usp=sharing"
        },
        {
            "id": 4,
            "price": 115,
            "name": "PowderKeg Custard",
            "googleDriveUrl": "https://drive.google.com/file/d/1xsrfzWSCNM4q4Y_qTZdNnM7Lj-9kcWOf/view?usp=sharing"
        },
        {
            "id": 5,
            "price": 210,
            "name": "Frozen Peanut Bar Ice-cream",
            "googleDriveUrl": "https://drive.google.com/file/d/11j5yyT7izupcQAmvx3685BoWy2lsvtnI/view?usp=sharing"
        },
        {
            "id": 6,
            "price": 210,
            "name": "Butter Scotch Ice-cream",
            "googleDriveUrl": "https://drive.google.com/file/d/1xm0zKj3wG5sUf3fHbOUwcqRIy9CTlqFg/view?usp=sharing"
        }
    ]
}